<?xml version="1.0" encoding="utf-8"?>
<!-- Generator: Adobe Illustrator 22.1.0, SVG Export Plug-In . SVG Version: 6.00 Build 0)  -->
<svg version="1.1" id="Layer_1" xmlns="http://www.w3.org/2000/svg" xmlns:xlink="http://www.w3.org/1999/xlink" x="0px" y="0px"
	 viewBox="0 0 86 61" style="enable-background:new 0 0 86 61;" xml:space="preserve">
<style type="text/css">
	.st0{fill:#F1F2F2;}
	.st1{fill:#FFBA00;}
	.st2{fill:#D1D3D4;}
	.st3{fill:#E6E7E8;}
	.st4{fill:#BABBBD;}
	.st5{clip-path:url(#SVGID_2_);}
	.st6{fill:#AB6609;}
	.st7{fill:#C6772B;}
	.st8{fill:#FFFFFF;}
	.st9{fill:#6CB38A;}
	.st10{fill:#353A42;}
	.st11{opacity:0.3;fill:#FFFFFF;}
</style>
<g>
	<path class="st0" d="M10.1,25.1v11.7c0,1,0.5,2,1.2,2.6c8.4,6.7,19.8,10.7,32.4,10.7c15.7,0,29.6-6.3,38-16.1
		c1.6-1.8,1.6-4.5,0-6.3c-8.5-9.7-22.4-16.1-38-16.1c-12.6,0-24,4.1-32.4,10.7C10.6,23.1,10.1,24.1,10.1,25.1z"/>
</g>
<g>
	<path class="st1" d="M13.1,41.1c0,5.8-4.3,10.6-9.9,11.5c-0.8,0.1-1.4,0.8-1.4,1.6v0.2c0,0.7,0.5,1.4,1.3,1.5
		c2,0.4,4.1,0.6,6.2,0.6c8,0,15.3-3,20.9-8c-6.4-1.6-12.2-4.3-17.1-7.8C13.1,40.8,13.1,41,13.1,41.1z"/>
</g>
<g>
	<path class="st1" d="M13.1,20.8c0-5.8-4.3-10.6-9.9-11.5C2.5,9.2,1.9,8.6,1.9,7.8V7.5c0-0.7,0.5-1.4,1.3-1.5c2-0.4,4.1-0.6,6.2-0.6
		c8,0,15.3,3,20.9,8C23.8,15,18,17.6,13.1,21.2C13.1,21.1,13.1,20.9,13.1,20.8z"/>
</g>
<g>
	<g>
		<path class="st1" d="M81.8,27.8c-3.7-4.3-8.5-7.9-13.9-10.6v27.4c5.5-2.7,10.2-6.3,13.9-10.6C83.4,32.3,83.4,29.6,81.8,27.8z"/>
	</g>
</g>
<g>
	<ellipse transform="matrix(0.8304 -0.5572 0.5572 0.8304 -9.3161 31.2999)" class="st2" cx="46.8" cy="31" rx="16" ry="16"/>
</g>
<g>
	<ellipse transform="matrix(0.8652 -0.5015 0.5015 0.8652 -9.1596 27.8394)" class="st3" cx="47.2" cy="31" rx="16" ry="16"/>
</g>
<g>
	<path class="st4" d="M32,29.1L32,29.1L32,29.1c0-0.3,0.3-0.5,0.6-0.5l0,0c0.3,0,0.5,0.3,0.5,0.6l0,0c0,0.3-0.3,0.5-0.6,0.5l0,0
		C32.2,29.7,32,29.5,32,29.1L32,29.1C32,29.2,32,29.2,32,29.1z M32.5,32.2c0.3,0,0.5,0.2,0.6,0.5l0,0c0,0.3-0.2,0.5-0.5,0.6l0,0
		c-0.3,0-0.5-0.2-0.6-0.5l0,0c0,0,0,0,0-0.1l0,0C32,32.5,32.2,32.3,32.5,32.2z M32.9,25.6L32.9,25.6L32.9,25.6
		c0.1-0.3,0.4-0.4,0.7-0.3l0,0c0.3,0.1,0.4,0.4,0.3,0.7l0,0c-0.1,0.3-0.4,0.4-0.7,0.3l0,0c-0.2-0.1-0.3-0.3-0.3-0.5l0,0
		C32.9,25.7,32.9,25.6,32.9,25.6z M33.2,35.7c0.3-0.1,0.6,0,0.7,0.3l0,0c0.1,0.3,0,0.6-0.3,0.7l0,0c-0.3,0.1-0.6,0-0.7-0.3l0,0l0,0
		l0,0c0-0.1,0-0.1,0-0.2l0,0C32.9,36,33,35.8,33.2,35.7z M34.6,22.3c0.2-0.2,0.5-0.3,0.7-0.1l0,0c0.2,0.2,0.3,0.5,0.1,0.7l0,0
		c-0.2,0.2-0.5,0.3-0.7,0.1l0,0c-0.1-0.1-0.2-0.3-0.2-0.4l0,0C34.5,22.5,34.5,22.4,34.6,22.3z M34.8,38.9c0.2-0.2,0.6-0.1,0.7,0.1
		l0,0c0.2,0.2,0.1,0.6-0.1,0.7l0,0c-0.2,0.2-0.6,0.1-0.7-0.1l0,0c-0.1-0.1-0.1-0.2-0.1-0.3l0,0C34.5,39.2,34.6,39,34.8,38.9z
		 M37,19.5c0.2-0.2,0.5-0.2,0.7,0l0,0c0.2,0.2,0.2,0.5,0,0.7l0,0c-0.2,0.2-0.5,0.2-0.7,0l0,0c-0.1-0.1-0.1-0.2-0.1-0.3l0,0
		C36.9,19.8,36.9,19.6,37,19.5z M37,41.7c0.2-0.2,0.5-0.2,0.7,0l0,0c0.2,0.2,0.2,0.5,0,0.7l0,0c-0.2,0.2-0.5,0.2-0.7,0l0,0
		c-0.1-0.1-0.2-0.2-0.2-0.4l0,0C36.9,41.9,36.9,41.8,37,41.7z M40.1,17.4c0.3-0.1,0.6,0,0.7,0.2l0,0c0.1,0.3,0,0.6-0.2,0.7l0,0
		c-0.3,0.1-0.6,0-0.7-0.2l0,0c0-0.1-0.1-0.2-0.1-0.2l0,0C39.8,17.7,39.9,17.5,40.1,17.4z M39.9,43.8c0.1-0.3,0.4-0.4,0.7-0.2l0,0
		c0.3,0.1,0.4,0.5,0.2,0.7l0,0c-0.1,0.3-0.4,0.4-0.7,0.2l0,0l0,0l0,0c-0.2-0.1-0.3-0.3-0.3-0.5l0,0C39.8,43.9,39.8,43.9,39.9,43.8z
		 M43.5,16.1c0.3-0.1,0.6,0.1,0.6,0.4l0,0c0.1,0.3-0.1,0.6-0.4,0.6l0,0c-0.3,0.1-0.6-0.1-0.6-0.4l0,0c0,0,0-0.1,0-0.1l0,0
		C43.1,16.4,43.3,16.2,43.5,16.1z M43.2,45.2c0.1-0.3,0.4-0.4,0.6-0.4l0,0c0.3,0.1,0.5,0.4,0.4,0.6l0,0c-0.1,0.3-0.4,0.5-0.6,0.4
		l0,0l0,0l0,0c-0.2-0.1-0.4-0.3-0.4-0.5l0,0C43.1,45.2,43.1,45.2,43.2,45.2z M47.2,15.7c0.3,0,0.5,0.2,0.5,0.5l0,0
		c0,0.3-0.2,0.5-0.5,0.5l0,0c-0.3,0-0.5-0.2-0.5-0.5l0,0C46.6,15.9,46.9,15.7,47.2,15.7z M47.2,45.2L47.2,45.2
		C47.2,45.2,47.2,45.2,47.2,45.2L47.2,45.2C47.2,45.2,47.2,45.2,47.2,45.2L47.2,45.2c0.3,0,0.6,0.2,0.6,0.5l0,0
		c0,0.3-0.2,0.5-0.5,0.5l0,0c0,0,0,0,0,0l0,0c0,0,0,0,0,0l0,0c-0.3,0-0.5-0.2-0.5-0.5l0,0C46.7,45.4,46.9,45.2,47.2,45.2z
		 M50.2,16.5c0.1-0.3,0.3-0.5,0.6-0.4l0,0c0.3,0.1,0.5,0.4,0.4,0.6l0,0c-0.1,0.3-0.3,0.5-0.6,0.4l0,0c-0.2-0.1-0.4-0.3-0.4-0.5l0,0
		C50.2,16.6,50.2,16.5,50.2,16.5z M50.7,44.8c0.3-0.1,0.6,0.1,0.6,0.4l0,0c0.1,0.3-0.1,0.6-0.4,0.6l0,0c-0.3,0.1-0.6-0.1-0.6-0.4
		l0,0c0,0,0-0.1,0-0.1l0,0C50.3,45,50.4,44.8,50.7,44.8z M53.6,17.6c0.1-0.3,0.4-0.4,0.7-0.2l0,0c0.3,0.1,0.4,0.4,0.2,0.7l0,0
		c-0.1,0.3-0.4,0.4-0.7,0.2l0,0c-0.2-0.1-0.3-0.3-0.3-0.5l0,0C53.5,17.8,53.5,17.7,53.6,17.6z M53.9,43.5c0.3-0.1,0.6,0,0.7,0.2l0,0
		c0.1,0.3,0,0.6-0.2,0.7l0,0c-0.3,0.1-0.6,0-0.7-0.2l0,0c0-0.1-0.1-0.2-0.1-0.2l0,0C53.6,43.8,53.7,43.6,53.9,43.5z M56.6,19.5
		c0.2-0.2,0.5-0.2,0.7,0l0,0c0.2,0.2,0.2,0.5,0,0.7l0,0c-0.2,0.2-0.5,0.2-0.7,0l0,0c-0.1-0.1-0.2-0.2-0.2-0.4l0,0
		C56.4,19.8,56.5,19.6,56.6,19.5z M56.7,41.6c0.2-0.2,0.5-0.2,0.7,0l0,0c0.2,0.2,0.2,0.5,0,0.7l0,0c-0.2,0.2-0.5,0.2-0.7,0l0,0
		c-0.1-0.1-0.1-0.2-0.1-0.3l0,0C56.5,41.8,56.5,41.7,56.7,41.6z M59,22.1c0.2-0.2,0.6-0.1,0.7,0.1l0,0c0.2,0.2,0.1,0.6-0.1,0.7l0,0
		c-0.2,0.2-0.6,0.1-0.7-0.1l0,0c-0.1-0.1-0.1-0.2-0.1-0.3l0,0C58.8,22.4,58.9,22.2,59,22.1z M58.9,39c0.2-0.2,0.5-0.3,0.7-0.1l0,0
		c0.2,0.2,0.3,0.5,0.1,0.7l0,0c-0.2,0.2-0.5,0.3-0.7,0.1l0,0c-0.1-0.1-0.2-0.3-0.2-0.4l0,0C58.8,39.2,58.9,39.1,58.9,39z M60.8,25.2
		c0.3-0.1,0.6,0,0.7,0.3l0,0c0.1,0.3,0,0.6-0.3,0.7l0,0c-0.3,0.1-0.6,0-0.7-0.3l0,0c0-0.1,0-0.1,0-0.2l0,0
		C60.5,25.5,60.6,25.3,60.8,25.2z M60.5,36c0.1-0.3,0.4-0.4,0.7-0.3l0,0c0.3,0.1,0.4,0.4,0.3,0.7l0,0l0,0l0,0
		c-0.1,0.3-0.4,0.4-0.7,0.3l0,0c-0.2-0.1-0.3-0.3-0.3-0.5l0,0C60.5,36.1,60.5,36,60.5,36z M61.8,28.6c0.3,0,0.5,0.2,0.6,0.5l0,0
		c0,0.3-0.2,0.5-0.5,0.6l0,0c-0.3,0-0.5-0.2-0.6-0.5l0,0c0,0,0,0,0-0.1l0,0C61.3,28.9,61.5,28.6,61.8,28.6z M61.3,32.6
		c0-0.3,0.3-0.5,0.6-0.5l0,0c0.3,0,0.5,0.3,0.5,0.6l0,0c0,0.3-0.3,0.5-0.6,0.5l0,0C61.5,33.2,61.3,32.9,61.3,32.6L61.3,32.6
		C61.3,32.7,61.3,32.6,61.3,32.6z"/>
</g>
<g>
	<g>
		<path class="st3" d="M68.8,20.3c0-0.2,0.1-0.3,0.2-0.5c0.1-0.1,0.3-0.2,0.5-0.2c0.2,0,0.3,0.1,0.5,0.2c0.2,0.2,0.2,0.7,0,0.9
			c-0.1,0.1-0.3,0.2-0.5,0.2c-0.2,0-0.3-0.1-0.5-0.2C68.9,20.6,68.8,20.5,68.8,20.3z"/>
	</g>
	<g>
		<path class="st3" d="M69.4,23.2c0.4,0,0.7,0.3,0.7,0.7l0,0c0,0.4-0.3,0.7-0.7,0.7l0,0c-0.4,0-0.7-0.3-0.7-0.7l0,0
			C68.8,23.5,69.1,23.2,69.4,23.2z"/>
	</g>
	<g>
		<path class="st3" d="M69.4,37.6c0.4,0,0.7,0.3,0.7,0.7l0,0c0,0.4-0.3,0.7-0.7,0.7l0,0c-0.4,0-0.7-0.3-0.7-0.7l0,0
			C68.8,37.9,69.1,37.6,69.4,37.6z M69.4,34c0.4,0,0.7,0.3,0.7,0.7l0,0c0,0.4-0.3,0.7-0.7,0.7l0,0c-0.4,0-0.7-0.3-0.7-0.7l0,0
			C68.8,34.3,69.1,34,69.4,34z M69.4,30.4c0.4,0,0.7,0.3,0.7,0.7l0,0c0,0.4-0.3,0.7-0.7,0.7l0,0c-0.4,0-0.7-0.3-0.7-0.7l0,0
			C68.8,30.7,69.1,30.4,69.4,30.4z M69.4,26.8c0.4,0,0.7,0.3,0.7,0.7l0,0c0,0.4-0.3,0.7-0.7,0.7l0,0c-0.4,0-0.7-0.3-0.7-0.7l0,0
			C68.8,27.1,69.1,26.8,69.4,26.8z"/>
	</g>
	<g>
		<path class="st3" d="M68.8,41.9c0-0.2,0.1-0.3,0.2-0.5c0.1-0.1,0.3-0.2,0.5-0.2c0.2,0,0.3,0.1,0.5,0.2c0.2,0.2,0.2,0.7,0,0.9
			c-0.1,0.1-0.3,0.2-0.5,0.2c-0.2,0-0.3-0.1-0.5-0.2C68.9,42.2,68.8,42,68.8,41.9z"/>
	</g>
</g>
<g>
	<path class="st3" d="M67.4,17v27.9c0.2-0.1,0.3-0.2,0.5-0.2V17.2C67.7,17.2,67.6,17.1,67.4,17z"/>
</g>
<g>
	<path class="st3" d="M29,12.3c-5.9,1.5-11.3,3.8-16,6.9c0.1,0.5,0.1,1.1,0.1,1.6c0,0.1,0,0.2,0,0.3c4.9-3.5,10.7-6.2,17.1-7.8
		C29.8,13,29.4,12.7,29,12.3z"/>
</g>
<g>
	<path class="st3" d="M30.2,48.5c-6.4-1.6-12.2-4.3-17.1-7.8c0,0.1,0,0.2,0,0.3c0,0.6,0,1.1-0.1,1.7c4.7,3,10.1,5.4,16,6.9
		C29.4,49.2,29.8,48.9,30.2,48.5z"/>
</g>
<g>
	<defs>
		<circle id="SVGID_1_" cx="47" cy="30" r="12"/>
	</defs>
	<clipPath id="SVGID_2_">
		<use xlink:href="#SVGID_1_"  style="overflow:visible;"/>
	</clipPath>
	<g class="st5">
		
			<image style="overflow:visible;opacity:0.4;" width="24" height="33" xlink:href="3F716223.png"  transform="matrix(1 0 0 1 37 17)">
		</image>
		<g>
			<g>
				<g>
					<path class="st1" d="M47.6,40.9v1.4c0,0-1.7-0.2-1.7,0.4c0,0.6,2.2,0.1,2.2,0.1s2.2,0.5,2.2-0.1c0-0.6-1.7-0.4-1.7-0.4v-1.4
						c-0.1,0-0.3,0-0.5,0C48,40.9,47.7,40.9,47.6,40.9z"/>
					<path class="st6" d="M44.5,35.5c-0.3,0.3-0.8,0.8-1.1,1.5c-0.8,1.5-0.9,3.1,0.5,2.3c0,0,0.1,1.2,1.1,0.6
						c0.1-0.1,0.2-0.2,0.2-0.3c-0.6-0.7-1-1.6-1-2.6C44.2,36.5,44.3,36,44.5,35.5z"/>
					<path class="st6" d="M51.8,35.5c0.2,0.5,0.3,1,0.3,1.5c0,1-0.4,1.9-1,2.6c0.1,0.1,0.1,0.2,0.2,0.3c1,0.6,1.1-0.6,1.1-0.6
						c1.4,0.7,1.3-0.9,0.5-2.3C52.6,36.3,52.1,35.8,51.8,35.5z"/>
					<path class="st7" d="M51.8,35.5c-0.1-0.2-0.1-0.3-0.2-0.5c0,0,0,0,0,0C51.6,35.2,51.7,35.4,51.8,35.5c-0.1,0.2-0.2,0.2-0.4,0.3
						c-0.1,0.1-0.3,0.1-0.5,0.2c0,0.1-0.1,0.2-0.1,0.2c-0.3,0.5-0.9,1.1-2.7,1.1c-1.7,0-2.5-0.6-2.7-1.1c-0.1-0.1-0.1-0.2-0.2-0.4
						c-0.3-0.1-0.5-0.2-0.8-0.3c0.1-0.2,0.2-0.4,0.3-0.5c0,0,0,0,0,0c-0.1,0.2-0.2,0.3-0.2,0.5c-0.2,0.5-0.3,1-0.3,1.5
						c0,1,0.4,1.9,1,2.6c0.6,0.7,1.5,1.2,2.4,1.3c0.2,0,0.4,0,0.5,0c0.2,0,0.3,0,0.5,0c1-0.1,1.8-0.6,2.5-1.3c0.6-0.7,1-1.6,1-2.6
						C52.1,36.5,52,36,51.8,35.5z"/>
					<path class="st8" d="M44.7,35c-0.1,0.2-0.2,0.3-0.3,0.5c0.3,0.1,0.5,0.2,0.8,0.3c-0.1-0.2-0.1-0.4-0.1-0.6
						C45,35.2,44.9,35.1,44.7,35z"/>
					<path class="st8" d="M51.2,35.3c0,0.2-0.1,0.5-0.2,0.7c0.2-0.1,0.3-0.1,0.5-0.2c0.1-0.1,0.3-0.1,0.4-0.2
						c-0.1-0.2-0.2-0.4-0.3-0.6C51.4,35.1,51.3,35.2,51.2,35.3z"/>
					<path class="st9" d="M45.2,35.3c-0.1-0.9,0.5-1.5,0.2-1.8c-0.5-0.6-1.5-0.7-1.3-1.3c0.1-0.6,2.4-0.1,2.9-0.3
						c0.5-0.2,0.7-1.2,1.2-1.2c0,0,0,0,0,0c0,0,0,0,0,0c0.5,0,0.7,1,1.2,1.2c0.5,0.2,2.8-0.3,2.9,0.3c0.1,0.6-0.8,0.7-1.3,1.3
						c-0.3,0.3,0.3,0.9,0.3,1.8c0.1-0.1,0.3-0.2,0.4-0.3c0,0,0,0,0,0c1.5-1.1,2.5-2.8,2.5-4.8c0-3.1-2.4-5.7-5.5-5.8
						c0.1-0.3,0.3-0.5,0.5-0.8c0.1-0.1,0-0.2-0.1-0.2c-0.2,0.1-0.4,0.2-0.5,0.3c0.1-0.3,0.3-0.6,0.4-0.8c0,0,0-0.1-0.1-0.1
						c-0.7,0.2-1,0.9-1.1,1.6c-3,0.3-5.3,2.8-5.3,5.8c0,2,1,3.7,2.5,4.8c0,0,0,0,0,0C44.9,35.1,45,35.2,45.2,35.3z M50.3,29.8
						c0.4,0,0.8,0.3,0.8,0.8c0,0.4-0.3,0.8-0.8,0.8c-0.4,0-0.8-0.3-0.8-0.8C49.5,30.2,49.9,29.8,50.3,29.8z M46,29.8
						c0.4,0,0.8,0.3,0.8,0.8c0,0.4-0.3,0.8-0.8,0.8c-0.4,0-0.8-0.3-0.8-0.8C45.2,30.2,45.5,29.8,46,29.8z"/>
					<path class="st8" d="M46,31.4c0.4,0,0.8-0.3,0.8-0.8c0-0.4-0.3-0.8-0.8-0.8c-0.4,0-0.8,0.3-0.8,0.8C45.2,31,45.5,31.4,46,31.4z
						 M46,30.3c0.2,0,0.3,0.1,0.3,0.3c-0.1-0.1-0.1-0.1-0.2-0.1c-0.2,0-0.3,0.1-0.4,0.3c0-0.1,0-0.1,0-0.2
						C45.6,30.4,45.8,30.3,46,30.3z"/>
					<path class="st10" d="M46.1,30.5c0.1,0,0.2,0,0.2,0.1c0-0.2-0.2-0.3-0.3-0.3c-0.2,0-0.3,0.2-0.3,0.3c0,0.1,0,0.1,0,0.2
						C45.7,30.6,45.8,30.5,46.1,30.5z"/>
					<path class="st8" d="M50.3,31.4c0.4,0,0.8-0.3,0.8-0.8c0-0.4-0.3-0.8-0.8-0.8c-0.4,0-0.8,0.3-0.8,0.8
						C49.5,31,49.9,31.4,50.3,31.4z M50.3,30.3c0.2,0,0.3,0.2,0.3,0.3c0,0.1,0,0.1,0,0.2c-0.1-0.2-0.2-0.3-0.4-0.3
						c-0.1,0-0.2,0-0.2,0.1C50,30.4,50.1,30.3,50.3,30.3z"/>
					<path class="st10" d="M50.6,30.8c0-0.1,0-0.1,0-0.2c0-0.2-0.2-0.3-0.3-0.3c-0.2,0-0.3,0.1-0.3,0.3c0.1-0.1,0.1-0.1,0.2-0.1
						C50.4,30.5,50.5,30.6,50.6,30.8z"/>
					<path class="st1" d="M51.2,35.3c0.1-0.9-0.5-1.5-0.3-1.8c0.5-0.6,1.5-0.7,1.3-1.3c-0.1-0.6-2.4-0.1-2.9-0.3
						c-0.5-0.2-0.7-1.2-1.2-1.2c0,0,0,0,0,0c0,0,0,0,0,0c-0.5,0-0.7,1-1.2,1.2c-0.5,0.2-2.8-0.3-2.9,0.3c-0.1,0.6,0.8,0.7,1.3,1.3
						c0.3,0.3-0.3,0.9-0.2,1.8c0,0.2,0.1,0.4,0.1,0.6c0,0.1,0.1,0.2,0.2,0.4c0.3,0.5,1,1.1,2.7,1.1c1.7,0,2.4-0.6,2.7-1.1
						c0-0.1,0.1-0.2,0.1-0.2C51.1,35.7,51.1,35.5,51.2,35.3z M46.3,33.9c0.4,0.5,0.1,0.8-0.1,0.6C46,34.4,46.3,33.9,46.3,33.9z
						 M49.9,33.9c0,0,0.3,0.4,0.1,0.6C49.8,34.7,49.5,34.4,49.9,33.9z"/>
					<path class="st7" d="M46.3,34.6c0.2,0.1,0.5-0.2,0.1-0.6C46.3,33.9,46,34.4,46.3,34.6z"/>
					<path class="st7" d="M50,34.6c0.3-0.2-0.1-0.6-0.1-0.6C49.5,34.4,49.8,34.7,50,34.6z"/>
				</g>
				<path class="st11" d="M51.8,35.5c-0.1-0.2-0.1-0.3-0.2-0.5c1.5-1.1,2.5-2.8,2.5-4.8c0-3.1-2.4-5.7-5.5-5.8
					c0.1-0.3,0.3-0.5,0.5-0.8c0.1-0.1,0-0.2-0.1-0.2c-0.2,0.1-0.4,0.2-0.5,0.3c0.1-0.3,0.3-0.6,0.4-0.8c0,0,0-0.1-0.1-0.1
					c-0.3,0.1-0.5,0.2-0.6,0.4v19.5c0,0,2.2,0.5,2.2-0.1c0-0.6-1.7-0.4-1.7-0.4v-1.4c1-0.1,1.8-0.6,2.5-1.3c0.1,0.1,0.1,0.2,0.2,0.3
					c1,0.6,1.1-0.6,1.1-0.6c1.4,0.7,1.3-0.9,0.5-2.3C52.6,36.3,52.1,35.8,51.8,35.5z"/>
			</g>
		</g>
	</g>
</g>
</svg>
